<?xml version="1.0" encoding="utf-8"?>
<!-- Generator: Adobe Illustrator 19.1.0, SVG Export Plug-In . SVG Version: 6.00 Build 0)  -->
<svg version="1.1" id="Ebene_1" xmlns="http://www.w3.org/2000/svg" xmlns:xlink="http://www.w3.org/1999/xlink" x="0px" y="0px"
	 viewBox="0 0 170.1 68" style="enable-background:new 0 0 170.1 68;" xml:space="preserve">
<style type="text/css">
	.st0{fill-rule:evenodd;clip-rule:evenodd;fill:#A72539;}
	.st1{fill:#FFFFFF;}
	.st2{fill:#A7263C;}
</style>
<rect x="63.4" y="8.7" class="st0" width="43.8" height="26.4"/>
<g>
	<path class="st1" d="M81.3,30.4h-7.5v-0.3c0.7-0.1,1.1-0.2,1.4-0.3c0.5-0.3,0.7-0.7,0.7-1.2c0-0.3-0.1-0.7-0.3-1.2l-0.2-0.5
		l-1.1-2.7h-5l-0.6,1.6l-0.3,0.7c-0.3,0.8-0.5,1.5-0.5,2c0,0.3,0.1,0.5,0.2,0.8c0.1,0.2,0.3,0.4,0.5,0.6c0.3,0.2,0.7,0.3,1.1,0.4
		v0.3h-5.1v-0.3c0.4,0,0.8-0.1,1.1-0.3c0.3-0.2,0.6-0.5,0.9-0.8c0.2-0.3,0.5-0.7,0.7-1.2c0.2-0.5,0.5-1.2,0.9-2.2l4.2-10.7h0.6
		L78,26.8c0.4,0.9,0.7,1.5,0.9,1.9c0.2,0.4,0.5,0.7,0.7,0.9c0.2,0.1,0.4,0.2,0.6,0.3c0.2,0.1,0.6,0.1,1.1,0.2V30.4z M74.2,23.7
		l-2.4-5.9l-2.2,5.9H74.2z"/>
	<path class="st1" d="M88.9,14.9v0.3c-0.4,0-0.8,0.1-1,0.2c-0.3,0.1-0.5,0.3-0.7,0.5c-0.3,0.3-0.5,0.7-0.5,1.3
		c0,0.4-0.1,0.9-0.1,1.4v8.4c0,0.6,0,1.1,0.1,1.5c0.1,0.4,0.2,0.7,0.3,0.9c0.2,0.3,0.4,0.5,0.8,0.7c0.3,0.1,0.7,0.2,1.2,0.3v0.3
		h-7.2v-0.3c0.4,0,0.8-0.1,1.1-0.2s0.5-0.3,0.7-0.5c0.2-0.2,0.4-0.5,0.5-0.9c0.1-0.4,0.1-0.9,0.1-1.7v-8.4c0-0.8,0-1.4-0.1-1.7
		c-0.1-0.4-0.2-0.7-0.5-0.9c-0.2-0.2-0.4-0.4-0.7-0.5c-0.3-0.1-0.6-0.2-1.1-0.2v-0.3H88.9z"/>
	<path class="st1" d="M105.8,30.4h-7.5v-0.3c0.7-0.1,1.1-0.2,1.4-0.3c0.5-0.3,0.7-0.7,0.7-1.2c0-0.3-0.1-0.7-0.3-1.2l-0.2-0.5
		l-1.1-2.7h-5l-0.6,1.6L93,26.4c-0.3,0.8-0.5,1.5-0.5,2c0,0.3,0.1,0.5,0.2,0.8s0.3,0.4,0.5,0.6c0.3,0.2,0.7,0.3,1.1,0.4v0.3h-5.1
		v-0.3c0.4,0,0.8-0.1,1.1-0.3c0.3-0.2,0.6-0.5,0.9-0.8c0.2-0.3,0.5-0.7,0.7-1.2c0.2-0.5,0.5-1.2,0.9-2.2l4.2-10.7h0.6l4.9,11.9
		c0.4,0.9,0.7,1.5,0.9,1.9s0.5,0.7,0.7,0.9c0.2,0.1,0.4,0.2,0.6,0.3c0.2,0.1,0.6,0.1,1.1,0.2V30.4z M98.7,23.7l-2.4-5.9L94,23.7
		H98.7z"/>
</g>
<g>
	<path class="st2" d="M20.1,63.5V63c0.9,0,1.4-0.3,1.4-1c0-0.2,0-0.4-0.1-0.6l-1.5-4.6h-5.3l-1.1,3.3C13.2,61,13,61.6,13,61.9
		c0,0.7,0.4,1,1.3,1.1v0.5h-4.2V63c0.6-0.1,1.1-0.3,1.4-0.6c0.3-0.3,0.7-1,1-2l4.5-13.5h1.7L23.5,61c0.3,0.8,0.6,1.4,0.9,1.6
		c0.3,0.2,0.8,0.4,1.5,0.4v0.5H20.1z M14.9,55.8h4.6l-2.3-7L14.9,55.8z"/>
	<path class="st2" d="M30.3,53.1v2.2c0.9-0.8,1.7-1.4,2.2-1.7c0.5-0.3,0.9-0.5,1.3-0.5c0.6,0,1.3,0.3,1.9,0.8l-0.8,1.8
		c-1.1-0.6-1.9-0.9-2.4-0.9c-0.6,0-1.3,0.4-2.2,1.2v5.6c0,0.6,0.1,0.9,0.4,1.1c0.2,0.2,0.7,0.3,1.3,0.3v0.5h-5.4V63
		c0.7,0,1.2-0.1,1.4-0.3s0.3-0.8,0.3-1.6v-5.5c0-0.7-0.1-1.2-0.4-1.4s-0.8-0.3-1.7-0.3v-0.5l3.6-0.3H30.3z"/>
	<path class="st2" d="M39.9,53.1h0.5v8.5c0,0.6,0.1,0.9,0.4,1.1c0.2,0.2,0.7,0.3,1.3,0.3v0.5h-5.6V63c0.8,0,1.3-0.1,1.6-0.3
		c0.2-0.2,0.3-0.6,0.3-1.1v-6.2c0-0.6-0.1-1-0.3-1.2c-0.2-0.2-0.7-0.3-1.6-0.3v-0.5L39.9,53.1z M39.5,47.8c0.3,0,0.6,0.1,0.9,0.4
		c0.2,0.2,0.4,0.5,0.4,0.9s-0.1,0.6-0.4,0.9c-0.2,0.2-0.5,0.4-0.9,0.4c-0.3,0-0.6-0.1-0.9-0.4c-0.3-0.2-0.4-0.5-0.4-0.9
		s0.1-0.6,0.4-0.9C38.8,47.9,39.1,47.8,39.5,47.8z"/>
	<path class="st2" d="M52.6,53.1v3.6h-0.5c-0.2-0.9-0.6-1.7-1.2-2.2s-1.3-0.8-2.2-0.8c-1,0-1.8,0.4-2.5,1.2c-0.6,0.8-1,1.8-1,3.1
		c0,1.4,0.4,2.6,1.1,3.6c0.8,1,1.6,1.5,2.7,1.5c0.7,0,1.4-0.2,2.1-0.6c0.7-0.4,1.3-0.9,1.7-1.6v0.7c-1.1,1.5-2.6,2.2-4.5,2.2
		c-1.5,0-2.7-0.5-3.7-1.4c-0.9-1-1.4-2.2-1.4-3.7c0-1.6,0.5-2.9,1.5-4c1-1.1,2.3-1.6,3.7-1.6c0.6,0,1.4,0.1,2.2,0.4
		c0.3,0.1,0.6,0.2,0.7,0.2c0.3,0,0.5-0.2,0.7-0.6H52.6z"/>
	<path class="st2" d="M65,58.4c0,1.5-0.5,2.8-1.6,3.8c-1.1,1-2.4,1.5-4,1.5s-2.9-0.5-4-1.5c-1.1-1-1.6-2.3-1.6-3.8
		c0-1.5,0.5-2.8,1.6-3.9c1.1-1,2.4-1.5,4-1.5c1.6,0,2.9,0.5,4,1.5C64.5,55.6,65,56.9,65,58.4z M62.9,58.5c0-1.4-0.3-2.6-0.9-3.5
		s-1.5-1.3-2.5-1.3c-1.1,0-1.9,0.4-2.5,1.3S56,57,56,58.5c0,1.5,0.3,2.6,0.9,3.5c0.6,0.9,1.5,1.3,2.5,1.3s1.9-0.4,2.5-1.3
		C62.6,61.1,62.9,59.9,62.9,58.5z"/>
	<path class="st2" d="M72.3,47.1v0.5c-0.7,0-1.2,0.2-1.5,0.6c-0.3,0.4-0.4,1.1-0.4,2v10.2c0,1,0.1,1.7,0.4,2
		c0.3,0.4,0.8,0.6,1.5,0.6v0.5h-5.9V63c0.7,0,1.2-0.2,1.5-0.6c0.3-0.4,0.4-1.1,0.4-2V50.2c0-1-0.1-1.7-0.4-2.1
		c-0.3-0.4-0.7-0.6-1.5-0.6v-0.5H72.3z"/>
	<path class="st2" d="M76.6,53.1v2c1.2-1.4,2.4-2,3.7-2c1,0,1.8,0.3,2.4,1c0.7,0.7,1,1.5,1,2.6v4.6c0,0.7,0.1,1.2,0.4,1.4
		c0.2,0.2,0.7,0.3,1.4,0.3v0.5H80V63c0.7,0,1.1-0.1,1.4-0.3c0.2-0.2,0.4-0.5,0.4-1v-5.3c0-0.7-0.2-1.3-0.6-1.7
		c-0.4-0.4-1-0.6-1.6-0.6c-1,0-1.9,0.7-2.9,2v5c0,0.8,0.1,1.4,0.3,1.6c0.2,0.2,0.7,0.3,1.4,0.3v0.5H73V63c0.8,0,1.3-0.1,1.4-0.4
		s0.3-0.8,0.3-1.6v-5.7c0-0.6-0.1-1-0.3-1.2c-0.2-0.2-0.7-0.3-1.4-0.3v-0.5l3.2-0.3H76.6z"/>
	<path class="st2" d="M90.2,53.4v0.5c-0.7,0.1-1,0.3-1,0.8c0,0.2,0.1,0.6,0.2,0.9l2.3,5.4l2-5.1c0.2-0.5,0.3-0.9,0.3-1.2
		c0-0.5-0.4-0.8-1.3-0.9v-0.5h3.7v0.5c-0.6,0.1-1,0.2-1.3,0.4s-0.5,0.6-0.7,1.1l-3.3,8.4h-0.5l-3.3-8c-0.3-0.8-0.6-1.3-0.8-1.5
		c-0.2-0.2-0.7-0.3-1.3-0.4v-0.5H90.2z"/>
	<path class="st2" d="M106.5,60.9v0.7c-0.6,0.8-1.2,1.3-1.9,1.7c-0.6,0.3-1.4,0.5-2.3,0.5c-1.6,0-2.9-0.5-3.9-1.5
		c-1-1-1.5-2.3-1.5-3.8c0-1.5,0.5-2.8,1.5-3.9c1-1.1,2.2-1.6,3.6-1.6c1.2,0,2.2,0.4,3.1,1.2s1.3,1.7,1.3,2.8v0.2h-7.5v0.1
		c0,1.1,0.2,2.1,0.5,2.9c0.3,0.8,0.8,1.5,1.5,1.9s1.3,0.7,2,0.7c0.7,0,1.2-0.1,1.7-0.4C105.1,62.3,105.7,61.7,106.5,60.9z
		 M98.9,56.8h5.5v-0.2c0-0.9-0.3-1.6-0.8-2.2c-0.5-0.5-1.2-0.8-1.9-0.8c-0.8,0-1.5,0.3-2,0.8S98.9,55.8,98.9,56.8z"/>
	<path class="st2" d="M114.6,53.1v3.1H114c-0.1-0.8-0.4-1.4-0.8-1.9c-0.5-0.5-1-0.7-1.7-0.7c-0.5,0-0.9,0.1-1.2,0.4
		c-0.3,0.3-0.5,0.6-0.5,1c0,0.4,0.1,0.8,0.4,1.1c0.3,0.3,0.9,0.7,1.9,1.1c1.2,0.6,2,1.1,2.4,1.6c0.4,0.5,0.6,1.1,0.6,1.8
		c0,0.8-0.3,1.6-1,2.2s-1.4,0.9-2.3,0.9c-0.4,0-1-0.2-1.8-0.5c-0.4-0.2-0.7-0.3-0.8-0.3c-0.2,0-0.3,0.1-0.4,0.2s-0.2,0.3-0.2,0.5
		h-0.5v-3.5h0.5c0.2,0.9,0.6,1.6,1.2,2.2s1.3,0.8,2.1,0.8c0.5,0,0.9-0.2,1.3-0.5c0.3-0.3,0.5-0.8,0.5-1.2c0-0.5-0.2-0.9-0.5-1.2
		c-0.3-0.4-1-0.8-2-1.2c-1.2-0.5-1.9-1-2.3-1.4c-0.4-0.4-0.6-1-0.6-1.6c0-0.8,0.3-1.5,0.9-2.1c0.6-0.6,1.3-0.9,2.2-0.9
		c0.4,0,0.8,0.1,1.3,0.3c0.3,0.1,0.6,0.2,0.8,0.2c0.3,0,0.5-0.2,0.6-0.5H114.6z"/>
	<path class="st2" d="M119.4,49.9h0.5v3.4h3.5v0.7h-3.5v6.5c0,0.7,0.2,1.2,0.5,1.6s0.8,0.6,1.4,0.6c0.7,0,1.3-0.3,1.9-1l0.3,0.4
		c-0.9,1.1-1.9,1.7-3.1,1.7c-0.9,0-1.6-0.3-2.1-0.8c-0.5-0.5-0.8-1.3-0.8-2.1v-6.8h-1.9v-0.5C117.5,52.9,118.6,51.6,119.4,49.9z"/>
	<path class="st2" d="M138.1,63.5V63c0.9,0,1.4-0.3,1.4-1c0-0.2,0-0.4-0.1-0.6l-1.5-4.6h-5.3l-1.1,3.3c-0.3,0.8-0.4,1.4-0.4,1.8
		c0,0.7,0.4,1,1.3,1.1v0.5h-4.2V63c0.6-0.1,1.1-0.3,1.4-0.6c0.3-0.3,0.7-1,1-2l4.5-13.5h1.7l4.8,14.1c0.3,0.8,0.6,1.4,0.9,1.6
		s0.8,0.4,1.5,0.4v0.5H138.1z M132.9,55.8h4.6l-2.3-7L132.9,55.8z"/>
	<path class="st2" d="M160.6,56.4v0.5c-0.7,0-1.2,0.2-1.6,0.5s-0.5,0.9-0.5,1.7v4.4c-0.4,0.1-1.1,0.2-2.1,0.3
		c-1,0.1-1.9,0.1-2.4,0.1c-3,0-5.4-0.7-7.1-2.2c-1.7-1.5-2.5-3.5-2.5-5.9c0-1.7,0.4-3.2,1.1-4.6c0.7-1.4,1.8-2.5,3.1-3.3
		c1.3-0.8,2.7-1.2,4.2-1.2c0.9,0,1.9,0.2,2.9,0.5c0.7,0.2,1.2,0.3,1.5,0.3c0.5,0,0.8-0.2,0.9-0.5h0.5v4.8h-0.5
		c-0.2-1.3-0.8-2.4-1.8-3.2s-2.2-1.2-3.6-1.2c-1.7,0-3.2,0.7-4.3,2.1c-1.1,1.4-1.7,3.2-1.7,5.4c0,2.4,0.6,4.4,1.9,6
		c1.3,1.6,2.9,2.4,4.8,2.4c1.8,0,2.8-0.6,2.8-1.8v-1.8c0-1-0.1-1.7-0.4-2.1c-0.3-0.4-0.7-0.6-1.4-0.6H154v-0.5H160.6z"/>
</g>
</svg>
